{
  "type": "object",
  "properties": {
    "selectAjaxString": {
      "type": "string",
      "title": "I\"m a string selected from results of an HTTP request",
      "x-fromUrl": "{context.endpoint}/lists/seasons",
      "x-itemsProp": "results",
      "x-itemTitle": "title",
      "x-itemKey": "href"
    },
    "selectAjaxStringArray": {
      "type": "array",
      "items": {
        "type": "string"
      },
      "title": "I\"m an array of strings selected from results of an HTTP request",
      "x-fromUrl": "{context.endpoint}/data-fair/api/v1/datasets?status=finalized&select=title&owner={context.owner.type}:{context.owner.id}",
      "x-itemsProp": "results",
      "x-itemTitle": "id",
      "x-itemKey": "href"
    },
    "selectAjaxObject": {
      "type": "object",
      "title": "I\"m an object selected from results of an HTTP request",
      "x-fromUrl": "{context.endpoint}/data-fair/api/v1/datasets?status=finalized&select=title,schema&owner={context.owner.type}:{context.owner.id}",
      "x-itemsProp": "results",
      "x-itemTitle": "title",
      "x-itemKey": "href",
      "properties": {
        "href": {
          "type": "string"
        },
        "title": {
          "type": "string"
        }
      }
    },
    "selectAjaxArrayOfObjects": {
      "type": "array",
      "title": "I\"m an array of objects selected from results of an HTTP request",
      "x-fromUrl": "{context.endpoint}/data-fair/api/v1/datasets?status=finalized&select=title,schema&owner={context.owner.type}:{context.owner.id}",
      "x-itemsProp": "results",
      "x-itemTitle": "title",
      "x-itemKey": "href",
      "items": {
        "type": "object",
        "properties": {
          "href": {
            "type": "string"
          },
          "title": {
            "type": "string"
          }
        }
      }
    },
    "selectAjaxLarge": {
      "type": "object",
      "title": "I\"m an object from a large HTTP request",
      "x-fromUrl": "{context.endpoint}/data-fair/api/v1/datasets?status=finalized&select=title&size=100&owner={context.owner.type}:{context.owner.id}",
      "x-itemsProp": "results",
      "x-itemTitle": "title",
      "x-itemKey": "href",
      "properties": {
        "href": {
          "type": "string"
        },
        "title": {
          "type": "string"
        }
      }
    },
    "selectAjaxWithQuery": {
      "type": "object",
      "title": "I\"m an object from a HTTP request with query",
      "x-fromUrl": "{context.endpoint}/data-fair/api/v1/datasets?status=finalized&select=title&q={q}&owner={context.owner.type}:{context.owner.id}",
      "x-itemsProp": "results",
      "x-itemTitle": "title",
      "x-itemKey": "href",
      "properties": {
        "href": {
          "type": "string"
        },
        "title": {
          "type": "string"
        }
      }
    }
  }
}